{
    "page": 1,
    "per_page": 3,
    "videos": [
        {
            "id": 1526909,
            "width": 1920,
            "height": 1080,
            "duration": 10,
            "full_res": null,
            "tags": [],
            "url": "https://www.pexels.com/video/seal-on-the-beach-1526909/",
            "image": "https://images.pexels.com/videos/1526909/free-video-1526909.jpg?auto=compress&cs=tinysrgb&fit=crop&h=630&w=1200",
            "avg_color": null,
            "user": {
                "id": 574687,
                "name": "Ruvim Miksanskiy",
                "url": "https://www.pexels.com/@digitech"
            },
            "video_files": [
                {
                    "id": 61368,
                    "quality": "hd",
                    "file_type": "video/mp4",
                    "width": 1920,
                    "height": 1080,
                    "fps": 23.98,
                    "link": "https://player.vimeo.com/external/296210754.hd.mp4?s=08c03c14c04f15d65901f25b542eb2305090a3d7&profile_id=175&oauth2_token_id=57447761"
                },
                {
                    "id": 61369,
                    "quality": "sd",
                    "file_type": "video/mp4",
                    "width": 960,
                    "height": 540,
                    "fps": 23.98,
                    "link": "https://player.vimeo.com/external/296210754.sd.mp4?s=9db41d71fa61a2cc19757f656fc5c5c5ef9f69ec&profile_id=165&oauth2_token_id=57447761"
                },
                {
                    "id": 61370,
                    "quality": "hd",
                    "file_type": "video/mp4",
                    "width": 1280,
                    "height": 720,
                    "fps": 23.98,
                    "link": "https://player.vimeo.com/external/296210754.hd.mp4?s=08c03c14c04f15d65901f25b542eb2305090a3d7&profile_id=174&oauth2_token_id=57447761"
                },
                {
                    "id": 61371,
                    "quality": "sd",
                    "file_type": "video/mp4",
                    "width": 640,
                    "height": 360,
                    "fps": 23.98,
                    "link": "https://player.vimeo.com/external/296210754.sd.mp4?s=9db41d71fa61a2cc19757f656fc5c5c5ef9f69ec&profile_id=164&oauth2_token_id=57447761"
                }
            ],
            "video_pictures": [
                {
                    "id": 141547,
                    "nr": 0,
                    "picture": "https://images.pexels.com/videos/1526909/pictures/preview-0.jpg"
                },
                {
                    "id": 141548,
                    "nr": 1,
                    "picture": "https://images.pexels.com/videos/1526909/pictures/preview-1.jpg"
                },
                {
                    "id": 141549,
                    "nr": 2,
                    "picture": "https://images.pexels.com/videos/1526909/pictures/preview-2.jpg"
                },
                {
                    "id": 141550,
                    "nr": 3,
                    "picture": "https://images.pexels.com/videos/1526909/pictures/preview-3.jpg"
                },
                {
                    "id": 141551,
                    "nr": 4,
                    "picture": "https://images.pexels.com/videos/1526909/pictures/preview-4.jpg"
                },
                {
                    "id": 141552,
                    "nr": 5,
                    "picture": "https://images.pexels.com/videos/1526909/pictures/preview-5.jpg"
                },
                {
                    "id": 141553,
                    "nr": 6,
                    "picture": "https://images.pexels.com/videos/1526909/pictures/preview-6.jpg"
                },
                {
                    "id": 141554,
                    "nr": 7,
                    "picture": "https://images.pexels.com/videos/1526909/pictures/preview-7.jpg"
                },
                {
                    "id": 141555,
                    "nr": 8,
                    "picture": "https://images.pexels.com/videos/1526909/pictures/preview-8.jpg"
                },
                {
                    "id": 141556,
                    "nr": 9,
                    "picture": "https://images.pexels.com/videos/1526909/pictures/preview-9.jpg"
                },
                {
                    "id": 141557,
                    "nr": 10,
                    "picture": "https://images.pexels.com/videos/1526909/pictures/preview-10.jpg"
                },
                {
                    "id": 141558,
                    "nr": 11,
                    "picture": "https://images.pexels.com/videos/1526909/pictures/preview-11.jpg"
                },
                {
                    "id": 141559,
                    "nr": 12,
                    "picture": "https://images.pexels.com/videos/1526909/pictures/preview-12.jpg"
                },
                {
                    "id": 141560,
                    "nr": 13,
                    "picture": "https://images.pexels.com/videos/1526909/pictures/preview-13.jpg"
                },
                {
                    "id": 141561,
                    "nr": 14,
                    "picture": "https://images.pexels.com/videos/1526909/pictures/preview-14.jpg"
                }
            ]
        },
        {
            "id": 5386411,
            "width": 2160,
            "height": 4096,
            "duration": 15,
            "full_res": null,
            "tags": [],
            "url": "https://www.pexels.com/video/a-monk-meditating-on-a-tree-5386411/",
            "image": "https://images.pexels.com/videos/5386411/pexels-photo-5386411.jpeg?auto=compress&cs=tinysrgb&fit=crop&h=1200&w=630",
            "avg_color": null,
            "user": {
                "id": 1437723,
                "name": "cottonbro studio",
                "url": "https://www.pexels.com/@cottonbro"
            },
            "video_files": [
                {
                    "id": 1351344,
                    "quality": "hd",
                    "file_type": "video/mp4",
                    "width": 1440,
                    "height": 2732,
                    "fps": 25.0,
                    "link": "https://player.vimeo.com/external/459389137.hd.mp4?s=964e360f6996936b708905b2fcf9bdd66c26de0d&profile_id=170&oauth2_token_id=57447761"
                },
                {
                    "id": 1351345,
                    "quality": "hd",
                    "file_type": "video/mp4",
                    "width": 720,
                    "height": 1366,
                    "fps": 25.0,
                    "link": "https://player.vimeo.com/external/459389137.hd.mp4?s=964e360f6996936b708905b2fcf9bdd66c26de0d&profile_id=174&oauth2_token_id=57447761"
                },
                {
                    "id": 1351346,
                    "quality": "sd",
                    "file_type": "video/mp4",
                    "width": 338,
                    "height": 640,
                    "fps": 25.0,
                    "link": "https://player.vimeo.com/external/459389137.sd.mp4?s=4ab08f2c37fd1c36e5d200feefd5c480c422c173&profile_id=164&oauth2_token_id=57447761"
                },
                {
                    "id": 1351347,
                    "quality": "sd",
                    "file_type": "video/mp4",
                    "width": 506,
                    "height": 960,
                    "fps": 25.0,
                    "link": "https://player.vimeo.com/external/459389137.sd.mp4?s=4ab08f2c37fd1c36e5d200feefd5c480c422c173&profile_id=165&oauth2_token_id=57447761"
                },
                {
                    "id": 1351348,
                    "quality": "sd",
                    "file_type": "video/mp4",
                    "width": 226,
                    "height": 426,
                    "fps": 25.0,
                    "link": "https://player.vimeo.com/external/459389137.sd.mp4?s=4ab08f2c37fd1c36e5d200feefd5c480c422c173&profile_id=139&oauth2_token_id=57447761"
                },
                {
                    "id": 1351349,
                    "quality": "hd",
                    "file_type": "video/mp4",
                    "width": 1080,
                    "height": 2048,
                    "fps": 25.0,
                    "link": "https://player.vimeo.com/external/459389137.hd.mp4?s=964e360f6996936b708905b2fcf9bdd66c26de0d&profile_id=175&oauth2_token_id=57447761"
                },
                {
                    "id": 1351350,
                    "quality": "hd",
                    "file_type": "video/mp4",
                    "width": 2160,
                    "height": 4096,
                    "fps": 25.0,
                    "link": "https://player.vimeo.com/external/459389137.hd.mp4?s=964e360f6996936b708905b2fcf9bdd66c26de0d&profile_id=172&oauth2_token_id=57447761"
                }
            ],
            "video_pictures": [
                {
                    "id": 2747973,
                    "nr": 0,
                    "picture": "https://images.pexels.com/videos/5386411/pictures/preview-0.jpeg"
                },
                {
                    "id": 2747978,
                    "nr": 1,
                    "picture": "https://images.pexels.com/videos/5386411/pictures/preview-1.jpeg"
                },
                {
                    "id": 2747983,
                    "nr": 2,
                    "picture": "https://images.pexels.com/videos/5386411/pictures/preview-2.jpeg"
                },
                {
                    "id": 2747990,
                    "nr": 3,
                    "picture": "https://images.pexels.com/videos/5386411/pictures/preview-3.jpeg"
                },
                {
                    "id": 2747997,
                    "nr": 4,
                    "picture": "https://images.pexels.com/videos/5386411/pictures/preview-4.jpeg"
                },
                {
                    "id": 2748004,
                    "nr": 5,
                    "picture": "https://images.pexels.com/videos/5386411/pictures/preview-5.jpeg"
                },
                {
                    "id": 2748009,
                    "nr": 6,
                    "picture": "https://images.pexels.com/videos/5386411/pictures/preview-6.jpeg"
                },
                {
                    "id": 2748020,
                    "nr": 7,
                    "picture": "https://images.pexels.com/videos/5386411/pictures/preview-7.jpeg"
                },
                {
                    "id": 2748026,
                    "nr": 8,
                    "picture": "https://images.pexels.com/videos/5386411/pictures/preview-8.jpeg"
                },
                {
                    "id": 2748039,
                    "nr": 9,
                    "picture": "https://images.pexels.com/videos/5386411/pictures/preview-9.jpeg"
                },
                {
                    "id": 2748050,
                    "nr": 10,
                    "picture": "https://images.pexels.com/videos/5386411/pictures/preview-10.jpeg"
                },
                {
                    "id": 2748060,
                    "nr": 11,
                    "picture": "https://images.pexels.com/videos/5386411/pictures/preview-11.jpeg"
                },
                {
                    "id": 2748066,
                    "nr": 12,
                    "picture": "https://images.pexels.com/videos/5386411/pictures/preview-12.jpeg"
                },
                {
                    "id": 2748076,
                    "nr": 13,
                    "picture": "https://images.pexels.com/videos/5386411/pictures/preview-13.jpeg"
                },
                {
                    "id": 2748087,
                    "nr": 14,
                    "picture": "https://images.pexels.com/videos/5386411/pictures/preview-14.jpeg"
                }
            ]
        },
        {
            "id": 6963395,
            "width": 1080,
            "height": 1920,
            "duration": 7,
            "full_res": null,
            "tags": [],
            "url": "https://www.pexels.com/video/a-person-holding-a-eucalyptus-plant-with-soil-6963395/",
            "image": "https://images.pexels.com/videos/6963395/eco-friendly-environment-environmentally-friendly-mothernature-6963395.jpeg?auto=compress&cs=tinysrgb&fit=crop&h=1200&w=630",
            "avg_color": null,
            "user": {
                "id": 3716105,
                "name": "Cup of  Couple",
                "url": "https://www.pexels.com/@cup-of-couple"
            },
            "video_files": [
                {
                    "id": 2647363,
                    "quality": "sd",
                    "file_type": "video/mp4",
                    "width": 360,
                    "height": 640,
                    "fps": 25.0,
                    "link": "https://player.vimeo.com/external/517090081.sd.mp4?s=ee697395679ffeb176703b481af4395a8ca5ff1a&profile_id=164&oauth2_token_id=57447761"
                },
                {
                    "id": 2647364,
                    "quality": "sd",
                    "file_type": "video/mp4",
                    "width": 240,
                    "height": 426,
                    "fps": 25.0,
                    "link": "https://player.vimeo.com/external/517090081.sd.mp4?s=ee697395679ffeb176703b481af4395a8ca5ff1a&profile_id=139&oauth2_token_id=57447761"
                },
                {
                    "id": 2647365,
                    "quality": "sd",
                    "file_type": "video/mp4",
                    "width": 540,
                    "height": 960,
                    "fps": 25.0,
                    "link": "https://player.vimeo.com/external/517090081.sd.mp4?s=ee697395679ffeb176703b481af4395a8ca5ff1a&profile_id=165&oauth2_token_id=57447761"
                },
                {
                    "id": 2647366,
                    "quality": "hd",
                    "file_type": "video/mp4",
                    "width": 1080,
                    "height": 1920,
                    "fps": 50.0,
                    "link": "https://player.vimeo.com/external/517090081.hd.mp4?s=41698e1dec8310a33d49620e58eacab0589913da&profile_id=169&oauth2_token_id=57447761"
                },
                {
                    "id": 2647367,
                    "quality": "hd",
                    "file_type": "video/mp4",
                    "width": 1080,
                    "height": 1920,
                    "fps": null,
                    "link": "https://player.vimeo.com/external/517090081.hd.mp4?s=41698e1dec8310a33d49620e58eacab0589913da&profile_id=175&oauth2_token_id=57447761"
                },
                {
                    "id": 2647368,
                    "quality": "hd",
                    "file_type": "video/mp4",
                    "width": 720,
                    "height": 1280,
                    "fps": 50.0,
                    "link": "https://player.vimeo.com/external/517090081.hd.mp4?s=41698e1dec8310a33d49620e58eacab0589913da&profile_id=174&oauth2_token_id=57447761"
                }
            ],
            "video_pictures": [
                {
                    "id": 5475995,
                    "nr": 0,
                    "picture": "https://images.pexels.com/videos/6963395/pictures/preview-0.jpeg"
                },
                {
                    "id": 5476002,
                    "nr": 1,
                    "picture": "https://images.pexels.com/videos/6963395/pictures/preview-1.jpeg"
                },
                {
                    "id": 5476007,
                    "nr": 2,
                    "picture": "https://images.pexels.com/videos/6963395/pictures/preview-2.jpeg"
                },
                {
                    "id": 5476016,
                    "nr": 3,
                    "picture": "https://images.pexels.com/videos/6963395/pictures/preview-3.jpeg"
                },
                {
                    "id": 5476024,
                    "nr": 4,
                    "picture": "https://images.pexels.com/videos/6963395/pictures/preview-4.jpeg"
                },
                {
                    "id": 5476033,
                    "nr": 5,
                    "picture": "https://images.pexels.com/videos/6963395/pictures/preview-5.jpeg"
                },
                {
                    "id": 5476039,
                    "nr": 6,
                    "picture": "https://images.pexels.com/videos/6963395/pictures/preview-6.jpeg"
                },
                {
                    "id": 5476048,
                    "nr": 7,
                    "picture": "https://images.pexels.com/videos/6963395/pictures/preview-7.jpeg"
                },
                {
                    "id": 5476055,
                    "nr": 8,
                    "picture": "https://images.pexels.com/videos/6963395/pictures/preview-8.jpeg"
                },
                {
                    "id": 5476058,
                    "nr": 9,
                    "picture": "https://images.pexels.com/videos/6963395/pictures/preview-9.jpeg"
                },
                {
                    "id": 5476062,
                    "nr": 10,
                    "picture": "https://images.pexels.com/videos/6963395/pictures/preview-10.jpeg"
                },
                {
                    "id": 5476074,
                    "nr": 11,
                    "picture": "https://images.pexels.com/videos/6963395/pictures/preview-11.jpeg"
                },
                {
                    "id": 5476078,
                    "nr": 12,
                    "picture": "https://images.pexels.com/videos/6963395/pictures/preview-12.jpeg"
                },
                {
                    "id": 5476081,
                    "nr": 13,
                    "picture": "https://images.pexels.com/videos/6963395/pictures/preview-13.jpeg"
                },
                {
                    "id": 5476083,
                    "nr": 14,
                    "picture": "https://images.pexels.com/videos/6963395/pictures/preview-14.jpeg"
                }
            ]
        }
    ],
    "total_results": 407514,
    "next_page": "https://api.pexels.com/v1/videos/popular/?page=2&per_page=3",
    "url": "https://api-server.pexels.com/videos/"
}